<?xml version="1.0" encoding="utf-8"?>
<!-- Generator: Adobe Illustrator 19.2.1, SVG Export Plug-In . SVG Version: 6.00 Build 0)  -->
<svg version="1.1" id="Layer_1" xmlns="http://www.w3.org/2000/svg" xmlns:xlink="http://www.w3.org/1999/xlink" x="0px" y="0px"
	 viewBox="0 0 180 177.7" style="enable-background:new 0 0 180 177.7;" xml:space="preserve">
<path d="M45.2,164.4c-0.1-0.1-5.4-1.7-0.9-9.8C44,157.8,44.1,161.4,45.2,164.4z M164.7,110.3c-0.1-0.1-0.2-0.2-0.3-0.2
	C164.5,110.2,164.6,110.2,164.7,110.3z M15.7,74.4C16.2,75,16,74.8,15.7,74.4L15.7,74.4z M178,69.2C178.4,69.7,177.5,68.3,178,69.2
	L178,69.2z M12.5,124.4c0-1.1-1.3-1.5-1.3-1.3c-3.1,0-4.8,3.6-0.7,4.4c-1.4,2.7-1.9,5.2,0.8,5.9c1.3-2.1,4.2-12.7,4.8-13.3
	C15.9,120.2,14.2,122.1,12.5,124.4z M142.7,32.6c0,0,6.3-7.1,2.2-7.1C141.5,25.5,142.1,30.9,142.7,32.6z M141.8,149.7
	C142.9,151.2,141.3,149,141.8,149.7L141.8,149.7z M103.3,174.1C103.7,174.8,103.2,173.9,103.3,174.1L103.3,174.1z M18,63.1L18,63.1
	L18,63.1z M18,63.1C18.1,63.2,18.4,63.3,18,63.1L18,63.1z M22.3,35.9c-0.3,0-0.7-0.1-1-0.1C21.6,35.9,22,35.9,22.3,35.9z M17.5,62.9
	c-2.9-5.1-12.7-4.3-10.9-2.4C8.4,62.4,15.2,62.9,17.5,62.9z M96.4,3.7C96.1,2.2,95.7,0,93.5,0c-2.2,0-1.9,3.8-1.4,5.1
	C91.1,5.7,95.6,4.5,96.4,3.7z M65.6,159.6C65.4,159.3,65.5,159.4,65.6,159.6L65.6,159.6z M91.4,171.9
	C91.4,171.8,91.4,171.8,91.4,171.9C91.4,171.8,91.4,171.8,91.4,171.9L91.4,171.9z M8.5,106.5c-4.1-1.4-5.2,1.3-3.4,4.3
	C5.1,109.6,8.2,106.7,8.5,106.5z M146.1,36.3L146.1,36.3L146.1,36.3z M36.6,37.7C35.9,36.1,35.1,34.2,36.6,37.7L36.6,37.7z
	 M146.3,36.3c0,0,0,0-0.1,0C146.2,36.3,146.2,36.3,146.3,36.3z M133.3,159.6c0,0.1,0,0.2,0,0.4C133.4,160.2,133.3,159.8,133.3,159.6
	z M146.1,36.3C154,38.9,161.2,28.8,146.1,36.3L146.1,36.3z M158.6,54.6c-0.6,1-1.7,2-1.8,2.6C158.5,56.6,158.9,55.6,158.6,54.6z
	 M146.3,36.3L146.3,36.3L146.3,36.3z M155,147.5C155.2,147.9,154.8,147.2,155,147.5L155,147.5z M31.2,46.8
	C31,46.8,31.2,46.9,31.2,46.8L31.2,46.8z M178.4,92.4C178,92.9,178.7,92,178.4,92.4L178.4,92.4z M40.4,147.2
	C40.9,147,39.7,147.2,40.4,147.2L40.4,147.2z M13.2,68.8C13.1,68.7,13.2,68.9,13.2,68.8L13.2,68.8z M168.6,57.5
	c-0.3-0.3-0.8-0.4-1.5-0.3C167.7,57.1,168.2,57.2,168.6,57.5z M8.9,121.3C8.9,121.3,8.9,121.2,8.9,121.3
	C8.6,121.2,8.8,121.2,8.9,121.3z M108.2,17.2C108,17.3,108.5,17.1,108.2,17.2L108.2,17.2z M12,68.6C11.9,68.6,12.2,68.7,12,68.6
	L12,68.6z M11.8,102.4C11.8,102.4,12,102.5,11.8,102.4L11.8,102.4z M12,68.6C13,69.5,14,68.6,12,68.6L12,68.6z M173.4,101.8
	c0,0.1,0,0.1,0.1,0.2c1.5,0.6,0.8,0.3,0,0c0.5,1.8-2.5,4-8.5,5c1.7,0.7,3.1,1.4,3.9,1.4c-0.5-0.1-2.5,1.1-5.4,0.7
	c0.4,0.5,0.7,1,0.7,1.6c-1.2,0.7-2.4,1.1-3.7,1.4c0,0.1,0,0.3-0.1,0.4c3.6-1.2,8.1-2.7,12.7-2.7c2.6-0.1,3.9,1.1,3.8,3.4
	c-0.9,2.9-6.3,2.8-11.1,2c1.1,0.4,2.1,0.9,2.9,1.6c-0.1-0.1-0.1-0.1,0.2,0.1c0.1,0.1,0.1,0.1,0.1,0.1c2,2.2-4.3,1.8-9.6-0.3
	c-0.2,0.8-0.5,1.5-0.7,2.2c2.8,1.6,5.6,3.2,8.5,4.9c3.3,1.8-3.9,3-8.7-3.1c0,0.4-0.1,0.7-0.2,1.1c-0.1-0.1-0.3-0.2-0.4-0.3l0,0
	c1.8,1.6,3.3,3.3,3.8,4.7c0-0.1,0-0.1,0.1,0.2c0,0.2,0,0.1,0,0c-0.2-0.2-2.2-1.4-4.7-3c-0.4,0.8-0.8,1.7-1.2,2.5
	c3.5,2.1,7,4.6,8,7.1c4.4,4.5-5.8,0.2-9.8-4c-0.9,1.4-1.8,2.7-2.7,4.1c3.5,2.4,12.7,2.6,12.2,8c-0.2,2.2-1.8,2.8-4.1,2.2
	c-2.2,2-3.9,2.8-5.3,2.8c0.4,0.5,0.7,1,0.9,1.5c3.2,4.8-4.3-0.5-10.9-6c-0.2,0.2-0.4,0.4-0.6,0.7c2.8,3.1,5.5,6.3,8.6,9.3
	c0,3.9-5.6-0.7-11.2-6.7c-0.6,0.5-1.1,1.1-1.7,1.6c0,0.2,0,0.3,0,0.5c0.7,0.5,1.5,1.4,2.5,2.9c1,1.4,3.5,11,1.4,13.1
	c-1.7,0.7-3.2-0.3-4.3-2c-0.1,4.7-5.1-1.6-7.1-8.1c-0.2,0.1-0.4,0.3-0.5,0.4c0,0.1,0,0.1,0.1,0.2c2,2,1.8,3.5,2,6.4
	c0-0.1,0-0.1,0,0.4c0.5,1.5,0.7,7.1-1.8,7.1c-3.6,0-1.7-8.2-0.8-12.1c-0.4,0.2-1.1,0.1-1.8-0.2c-1,0.7-1.9,1.4-2.9,2.1
	c1.7,2.4,5.6,9,0.3,9v-0.1c0,1.4-0.5,2.8-1.5,4.2c-0.1,0.1-2.2-3-4.6-7.1c0.3,1.4,0.6,2.7,0.7,3.8c0,5.6-2.9,1.8-6-3.9
	c-0.1,0-0.1,0-0.2,0.1c0.3,0.9,0.3,1.8-0.6,2.8c0,0.1,0.1,0.1,0.1,0.2c1.1,1.7,1.4,3.5,0.6,5.6c-1.8,1.8-3.8-1.6-5.6-6.9l0,0
	c0.5,2.1,0.2,1.1-0.1,0c-0.1,0-0.2,0-0.3,0.1c0.3,0.5,0.4,0.9,0.6,1.1c0.3,0.7,0.2,0.5,0.1,0.2c3.5,7.9-0.4,6.1-4,2.9
	c0.4,0.5,0.8,1.1,1.2,1.6c0.2,0.3,0.2,0.3,0.1,0.2c3.3,5.1-3.2-0.1-6.5-4.8c-0.2,0-0.3,0-0.5,0c1,2.7,2.2,5.6,3.4,8.2
	c1,1.7,1.5,6.3-1.5,6.3c-3.5,0-4.6-3.6-4.6-7.6c-0.7,4.4-4-3.4-4.5-7.2c-0.1,0-0.2,0-0.4-0.1c0.3,2,0.4,5.2-1.2,5.2l0,0
	c0.1,0.4,0.2,0.8,0.3,1.1l0,0c0.5,1.2,0.2,0.3,0,0c1.2,1.8,1.6,3.6,0.9,5.6c-3.6,3.6-4.2-7.6-4.3-12.8c-0.1,0-0.1,0-0.2,0
	c0.7,4.6,0.1,11.8-2.8,12.9c-2.5-5.2-0.2-9.8,1-13.4c-0.3-0.1-0.7-0.2-1-0.3c-0.1,0.9-0.3,1.6-0.6,2.2c-0.5,4.6-1.4,8.7-2.9,8.2
	c-0.4-1.2-0.8-2.5-1-3.7c-1.2,3.3-2.9,5-4,2.8c-0.3,1.6-1,2.7-2.3,2.7c-3.1,0-3.3-2.1-3-4.2c-0.5-1-0.7-2.1-0.6-3
	c-2.8,3.3-5,3.7-6.6,2.1c-0.3,0.8-1,1.3-2.4,1.3c-3.2-2.7-1.1-3.5,0.3-5.4c-0.1-0.4-0.2-0.8-0.3-1.2c-0.1,1.1-0.6,2-1.8,2
	c-5.3,0-2.9-4.3-0.7-6.7c-0.3-0.1-0.6-0.2-0.9-0.3c0-3.7,0.3-4.4,0.8-7.4c-0.2-0.1-0.4-0.2-0.6-0.3c-2.2,12-3.5,23.5-5.2,7.4
	c-1.8,1.8-2.5-0.8-2.6-4.8c-0.3,1.5-0.7,3.7-1.2,4.7c0.1,0.2,0.1,0.3,0.2,0.5c1.4,6.9-5.8,1.2-3.1-8.8c-0.5,0.7-1.2,1.1-2,1.1
	c-0.4,0-0.7,0-0.9-0.1c0,1.1-0.1,1.8-0.3,2c0.2-0.1,0,0.1-0.1,0.1c-0.5,0.5-0.9,0.7-1.2,0.7c-0.1,3.1-0.7,6-1.6,7
	c-1.5,0.9-2.7,0.2-3.5-1.2c0,1.5-0.5,2.7-2,2.7c-2.3,0-1.9-4.5-0.9-8.4c-0.4,0.3-0.9,0.4-1.6,0.4c-2.3,0-2.3-2-1.6-4.4
	c-1.3,1.1-2.6,1.5-3.5,0.4c-2.3-2.3,1-4.5,3.5-6c-3.1,0.7-7.4,1.1-8.5-0.1c-0.2-0.4-0.2-1-0.1-1.7c-0.3,0.2-0.5,0.2-0.8,0.2
	c-4.4,0-4-2.1-1.9-4.7c-4.8-0.8,0.2-3.5,0-4.8c3.8,0,2.7,0.8,0.2,4.5c1.6-1.9,3.9-3.9,5.7-5.5c0.1-1.4,0.3-2.8,0.6-4.2
	c-3.2,7-5.3,2.2-2.6-4c-2.8,5-6.5,11-7.9,11c-3.2,0,2.5-7.9,7-13.4c-0.2-0.3-0.3-0.6-0.5-0.9c-10,6.3-7.3,2.1-2.8-3.9
	c-0.5-0.5-0.4-1.4,0-2.4c-0.1-0.2-0.1-0.3-0.2-0.5c-0.2,0.7-1.4,3.1-1.2,2.1c0.1-0.2,0,0,0,0c0.7-1.3,1-2,1.1-2.2
	c-0.1-0.3-0.2-0.6-0.3-0.8c-2,2.3-4.3,3.1-6.5,3c0.6,2.2,1,5.4-3.3,3.3c0,0,0,0-0.1,0c-1.3-0.4-1.5-1.1-1.1-1.9
	c-1.3,0.9-2.5,0.8-3.4-1.9c-0.5-2,0.7-2.6,2.4-2.6c-1.7-3,0-7.4,9.2-9.9c-0.2-0.8-0.3-1.6-0.5-2.3c-1.8-0.7-2.8-1.7-2.8-2.5
	c-0.9,0.6-1.5,1.4-2.2,1.8c0.4,0.2,0.8,0.4,1.2,0.6c0-0.1,0-0.2,0-0.3c0.2,0.1,0.3,0.3,0.3,0.4c0.1,0.1,0.3,0.1,0.4,0.2
	c2.1,4.2-21.3-10-6.8-3.3c3.7-4.2,3.9-0.2,7.5-0.1c0.2-0.1,0.5-0.1,0.8-0.1c0-0.1-0.2-0.1-0.6-0.2l0,0l0,0c-1.1-0.3-3.6-0.7-3.6-2.3
	c0-0.1,0-0.3,0-0.4C6.9,98,3.7,97.8,0.8,96c0,0-0.1-0.1-0.2-0.1c-0.1-0.1-0.1-0.1-0.1-0.1c-2-1.5,1.8-4.5,5.8-4.6c0-0.1,0-0.1,0-0.2
	c1.3-0.4,7.9-1.4,6.2,0.9c0.4,0.1,0.8,0.2,1.3,0.4c0-0.6-0.1-1.2-0.1-1.8c0-0.5,0-1.1,0-1.6c-0.5-0.5-0.8-0.9-1-1.3
	c-2.2-0.1-4.6-0.3-7.4-0.7c-0.3-0.2-0.7-0.1-1.2,0c3.5,0.5,9,2.9,7.7,2.9c-1.9-0.2-8,2.7-9.8-0.2c-0.8-1.2-0.9-1.9-0.5-2.3
	c-0.9,0-1.7-0.5-1.7-2.1c-0.2-1.8,7.2-0.8,13.9,0.2c-0.5-0.2-1.1-0.5-1.6-0.9c-1.8-0.2-3.5-0.5-5.2-1c0.2,0.1,0.3,0.1-0.3-0.1
	c-0.5-0.2-0.4-0.2-0.2-0.1c-1-0.5-6-3.3-3.7-4.3c-3.1-1.3,1.1-3.6,5-1.8c-1.2-2-0.7-2.7,0.4-2.8c-2.6-0.2-5.7-0.6-6.1-2
	c-1.2-3.5-0.4-4.9,1.2-5.1c-1.7-0.7-2.3-1.9-1.7-3.7c1.6-3.2,11.4,1.9,12.3,2.3c0,0.1-0.1,0.3-0.3,0.7c0.6-0.2,1.3-0.2,2.1,0
	c-0.9-0.5-1.6-1-2-1.4c1.9-3.2,3.4-1.8,5.9,0.3c0.1-0.1,0.1-0.2,0.2-0.4c-0.2-0.3-0.4-0.6-0.6-0.9c0.2,0,0.3,0,0.5-0.1
	c-0.5-0.2-1.2-0.5-2-1c0.8,0,1.9,0.4,2.7,0.9c0.1-0.2,0.2-0.4,0.3-0.5c-1.4-0.9-2.6-2-3.3-3.2c-1.5-0.6-4.2-2-6.1-2
	c-0.2-0.2-0.2-0.2-0.3-0.2c-3.2-3.5,1.9-4.8,5.7,0.5c0,0,0,0,0-0.1c-0.4-1.2-0.5-2-0.2-2.4c-0.8-0.3-1.6-0.7-2.5-1.2
	c-4-4,2.1-1.5,7.9,2.3c-0.7-0.8-1.2-1.4-1.5-1.9c0.2-0.5,0.9-0.2,1.8,0.3c-0.9-1.4,1.1-1,3.6,0.3c0.2-0.3,0.4-0.5,0.7-0.8
	c-2.8-3.7-4.7,1.1-8.1-8c-0.7-0.2-1.4-0.3-2-0.6c5.7,4.7,1,6.1,1.2,5.3c-1-0.9-4.3-4.2-2.6-5.9l0,0l0,0c-2.6-1.5,2.5-2.4,5.6-1
	c-1.3-1-2.2-2.1-2.6-3.1c1.8-0.7,3.5-0.7,5-0.2c-1.2-0.9-2.5-1.8-3.7-2.4c-0.6-0.3-0.5-0.3-0.3-0.2c-6.1-3.4,0.1-1.4,5.4,1.1
	c-0.2-0.5-0.5-1.2-0.8-2.2c0.2,0.2,5.8,2.1,5.1,1.9c-1.4-0.4-2.2,0.6-2.9,1c0.4,0.2,0.8,0.4,1.2,0.6c0.1-1.8,4-0.4,5.3,4.9
	c-0.8-0.2-1.8-0.7-2.7-1.3c0.7,0.5,1.5,1.2,2.4,2c0.4,0.1,0.6,0.3,0.7,0.6c0.2,0.2,0.4,0.3,0.6,0.4c0.7-0.8,1.4-1.5,2.2-2.3
	c-1.1-0.9-1.9-1.9-2.4-3c-3.1-3.4-6.6-6.3-10.9-6.7c3.9,0.3,7.4,2,10.6,4.9c0-0.5,0.1-1,0.3-1.6c1.7,1,3.2,2.4,4.7,3.9l0.1-0.1
	c-0.3-0.5-0.5-0.9-0.8-1.3c-1.1-0.7-2.2-1.2-3.2-1.9c-5.1-5.1,0.3-3.8,4.2-0.6c0.4-0.1,1.3,0.5,2.2,1.4c0.4-0.4,0.8-0.8,1.2-1.3
	c-1.5-1.4-2.9-2.8-4.2-4.2c-3.2,0.6-6-0.4-10.3-1.7c-6.9,0-0.5-4.7,5.1-4.9c-1.3-1.9-2.8-4.6-1-6.5c-1.1,1.1,0.6,3.7,3.5,6.8
	c1.6,0.5,2.9,1.5,3.5,3.5c0.9,0.8,1.8,1.6,2.7,2.5c0.6,0.2,1.2,0.5,1.8,1c-0.4-0.7-0.7-1.4-0.9-2c-0.1,0-0.1,0-0.2,0.1
	c-1.8,0-2.7-0.7-3.1-1.6c-0.8-0.9-1.4-2.1-2.1-3.7c0.9-3.2,0.9-4.6,0.9-8.4c0.1-0.1,0.1-0.1,0.2-0.1c-1.1-1-1.7-2.2-1.7-3.3
	c0-4.8,3-2.8,5.9,0.1c0.9-1,9.2,2.6,11.7,3.7v-0.1c-2.5-1-4.8-3.8-6.8-3.8c1.5,0,3.4-4.7,6.6,0.6c0-1.2,0.1-2.2,0.5-2.5
	c0,0,0,0,0.1,0c-1.6-1.5-2.7-2.8-2.7-3.7c0.6-6.1,5.3,0.2,8.8,5.5c-1.7-4.4-2.5-8.9-0.3-10.8c2.8-2.8,4.1,1.4,4.8,5.4
	c4.8,1.6,1.8,2.9,1.1,5.1c0.6-0.3,1.4,0.5,2.4,2.2c0.6-0.2,1.3-0.4,1.9-0.6c-0.6-1.5-1.2-3-1.9-4.4c-0.1-0.4-0.1-0.4,0-0.4v-0.1
	c-0.9-1.3-0.5-0.7-0.2-0.2c-1.5-2.3-5.9-10.3,0.1-8.5c1-2.5,3.6,1.4,5.5,7.1c-0.5-4.6-0.3-10.8,2.1-11.8C79-1.9,81.4,9.1,82,12
	c0-1.5,0.1-2.7,0.2-3.7c-0.3-0.4-0.2-0.2,0,0l0,0c-2.5-3.8,0.4-11.6,0.3-1.9c0.9-4,2.3,2.7,0.2,9.8c0.3,0,0.6,0,0.9,0
	c1.3-2.4,3-6,4-8.4c0.8,2.6,1.4,4.9,1.9,7.2c0-1.1,0.1-2.2,0.1-3.3c-0.5-1.1-3.1-6.9,0.5-6.8c1.7,0,2.8,1,3.4,2.5
	c1.6-2,2.6-2.7,3.3-2.3c-0.1-1.5,0.3-3.2,1.8-3.5c0.7,1,3.2,7.8,4.7,14.2c0.1-0.1,0.2-0.1,0.4-0.1c0.3,0,0.5,0.2,0.6,0.4
	c-0.3-4.9-0.9-9.8-2.6-11.5c5.5-0.9,7.2,4.1,6.7,9.9c2.7-4.2,8.7-11.1,7.3-8.7c-1.2,2-1.6,3.9-2.3,5.7c1.7-3.3,4.3-5.5,7.8-4.3
	c4.5,1.8-1.5,6.3-2.8,7.5c0.1,0,0.2,0,0.3,0c1.8-0.9,2.8-1.2,3-1.1c0.9-2.3,1.8-3.9,2.6-3.9c3.3,0,2.1,3.8,1.8,5.3l0,0
	c0.8,1.7,0.5,5-0.4,8.8c0.9,1.8,1.3,3.3,1.3,4.6l0,0c0.1-0.2,0.1-0.5,0.2-0.7l0,0l0,0l0,0c0-0.1-0.1-0.2-0.1-0.3v0.1
	c0-0.1,0-0.3,0-0.4s0-0.1,0-0.2c-0.3-13.8,9.8-18.9,2.4-3.8c0.7-0.4,1.4-0.3,1.9,0.1c3.9-0.1,1.6,0,0,0c0.9,0.7,1.3,2.1,0.9,3.2
	c0.8-0.9,1.1-0.8,1.9-0.8c0.1-1.8-1.4-11,1.7-11c2.2,0,2.5,1.9,2.1,4.5c0.1,0,0.1-0.1,0.2-0.1c2.7,2.9,0.5,5.5-1.4,9.1
	c0.1-0.4,0-1.2-0.2-2c-0.2,1.6-0.2,3,0.5,3.7c12.3-15.4,6.3-5-2.4,4.4c0.3,0.4,0.7,0.7,1,1.1c6-3.9,10.9-3.9,4.1,4.6
	c0,0,0,0,0.1,0.1c1.1-1.4,2.2-3,3-4.6c0.6-0.8,0.7-0.9,0.6-0.8c15.7-19.1,7.7-1-3.1,6c0,0,0,0,0.1,0.1c6-3.8,7.8-1.9,6.1,0.3
	c8.6-5.4,17.8-9.8,6.7,0.2c3.5-1.1,13-3.4,11.5,1.1c0,0.1,0.1,0.4,0.1,0.7c-0.1-0.4-0.1-0.6-0.2-0.7c0,0.1,0,0.2-0.1,0.2
	c-0.1,0.4-1,1-2.3,1.5c1.9,0,2.9,0.7,2.5,2.4c1.4-0.1,2.5,0.4,2.6,2.2c0,4.5-9.8,6.8-9.2,0.8c-0.3-0.9-1.3-1.1-2.7-0.8
	c2,0.7,1.6,2.1-0.3,3.8c0.4-0.2,0.8-0.3,1.2-0.3c-0.2-0.1-0.4-0.2-0.6-0.2c3.6,0.3,3.6,1.5,2.9,2.7c0-0.1-0.1-0.2-0.1-0.3
	c-0.7,1.4-3.2,3.3-6.2,5.1c0.3,0.4,0.5,0.8,0.8,1.2c3.8-1.9,7.4-3.7,9.2-4.2c1.6-2.8,3.6-5.9,6.1-5.9c5.6,0,0.4,5.1-1.5,6.7
	c0.1,0,0.2,0,0.3,0c-0.1,0-0.2,0-0.3,0c-0.2,0.2-0.4,0.3-0.5,0.4c-0.6,0-1.5,0.2-2.5,0.6c-1.1,0.5-2.3,1.3-3.5,2
	c-0.8,1.9-2,3-3.6,3.9c0.9-0.2,1.1,0.3,0,2c2.7-2.2,6.3-5.1,10.3-6c0.2,0.7-0.5,1.6-1.7,2.6c0.5-0.2,1-0.5,1.4-0.7
	c5.7-5.7,6.7,0.2,2.1,5.2c4.4-0.4,8.1,0,9.2,1.9c1.3,1.7,0.1,2.4-2.2,2.7c1,0.5,1.7,1.2,2.1,2.1c0-0.1-0.1-0.2,0,0.1
	c0,0.1,0,0.1,0,0.1c0.3,1.1-0.6,1.7-2.3,1.9c0.8,0.4,1.4,1.1,1.6,2.4c0,1.6-0.9,2-2.1,2.1c0.8,0.5,0.9,1.4-0.6,2.8l0,0
	c1.2,1,2.3,2.1,2.4,2.7c4.5,5.1-1.8,0.9-6.8-2.7c0.4,0.6,0.4,1,0.1,1.3c0.5,0.3,1.1,0.8,1.6,1.3c1.3,0.1,0.8,0.6-0.5,0.6
	c3.8,1,8.9,3.7,6.8,5.8c-0.6,0.8-1.9,0.7-3.6,0.3c3.3,1.8-4.8-0.6-10.4-2c4.4,2,13.9,6.3,14.9,7.1c-0.1-0.2-0.3-0.3,0.1,0.1
	c0.1,0.2,0.1,0.1,0.1,0.1C181.6,101,177.8,101.8,173.4,101.8z M67.1,156.9c-0.2-0.1-0.4-0.2-0.6-0.3c-0.1,0.3-0.2,0.6-0.2,0.8
	c0.1,0.5,0.3,1,0.4,1.7C66.7,158.4,66.9,157.6,67.1,156.9z M33.1,138.1c-0.9,1.3-1.5,2.3-1.2,2.9c-0.7,0.9,2.2,0.8,3.7,0.6
	c-0.1-0.4-0.1-0.8-0.1-1.3C34.7,139.6,33.9,138.9,33.1,138.1z M14.5,70.2c-0.8-0.2-1.3-0.6-1.3-1.4l-0.1-0.1c-1-0.2-2.9-0.1-4.6-0.2
	c2.2,1.1,4.2,2.6,4.9,3.6C13.5,71.5,13.9,70.9,14.5,70.2z M42.6,31.9c0.3-0.2,0.6-0.3,1-0.4c-0.1,0-0.1-0.1-0.2-0.1
	c-0.3-0.2-0.5-0.4-0.7-0.6C42.7,31.1,42.6,31.5,42.6,31.9z M93.8,15.9L93.8,15.9L93.8,15.9L93.8,15.9z M115.1,18.9
	c0.1-0.3,0.2-0.5,0.2-0.6C115.2,18.5,115.1,18.7,115.1,18.9z M130.8,29.3c0,0.2-0.1,0.3-0.1,0.5c0,0,0-0.1,0.1-0.1
	C130.8,29.6,130.8,29.5,130.8,29.3z M164.2,84.2c-0.1,0-0.3,0-0.4,0.1C164,84.3,164.1,84.3,164.2,84.2L164.2,84.2z M164.6,71.2
	c-3.1-0.5-5.6-0.9-5.6-0.9c0.4,0.8,0.4,1.5,0.2,1.9C160.8,71.8,162.7,71.4,164.6,71.2z M150.3,43.3c-0.5,0.3-0.9,0.7-1.4,1
	c0.3,0,0.7,0,1,0C150,44.1,150.1,43.7,150.3,43.3z M100.5,18c-0.1-0.6-0.2-1.2-0.2-1.9c-0.7-0.2-2.2-0.5-2.4,0.1
	c-0.6-0.5-0.7-2-0.8-3.6c-0.3,1.6-1,2.9-1.3,4c-0.2-0.4-0.4-0.6-0.6-0.8c0.1,0.5,0.2,1.1,0.1,1.8c0.4,0.1,0.9,0.2,1.3,0.3
	c1.7-1.8,1.6-1,0.5,0.1c0.4,0.1,0.7,0.2,1.1,0.3C99.2,18.1,99.9,17.9,100.5,18z M99.8,13.4c-0.2-0.8-0.4-1.6-0.6-2.4
	C99.3,11.7,99.5,12.5,99.8,13.4z M52.2,28.9c-0.3,0.1-0.4,0.3-0.5,0.5C51.9,29.2,52.1,29,52.2,28.9z M30.8,50.4
	c-0.5-0.2-1-0.4-1.4-0.6c0.4,0.4,0.7,0.7,1,1.1C30.5,50.7,30.7,50.6,30.8,50.4z M12.8,80.5c0.7,0.3,1.3,0.6,2,0.9
	c0-0.3,0.1-0.5,0.1-0.8C14.3,80.6,13.6,80.5,12.8,80.5z M41.5,148.4c0.1,0.5,0.3,1,0.4,1.6c0.2-0.7,0.5-1.5,0.9-2.4
	c0.3-0.7,0.5-1.3,0.8-1.8c-0.1-0.1-0.3-0.2-0.4-0.2C42.7,146.6,42.2,147.4,41.5,148.4z M48.2,153.7c0.5,0,1.4,0.2,2.5,0.3
	c0-1.4,0.1-3,0.3-4.5c-0.5-0.2-0.9-0.5-1.4-0.7C49.6,149.9,48.7,152.5,48.2,153.7z M96.1,165.9c0.1,0.4,0.2,0.9,0.3,1.4
	c0.5,0.8,0.8,1.7,0.9,2.8c0.1-1.5,0.3-2.9,0.6-4.2C97.3,166,96.7,165.9,96.1,165.9z M162.5,99.4c0.6,0,1.1,0,1.6,0
	c0.1-1.1,0.2-1.8,0.3-2.3c-0.4,0-0.9,0-1.4,0c0,0.1,0,0.1,0,0.1C162.8,97.9,162.6,98.7,162.5,99.4z M169.4,86.1
	c-0.5-0.2-1-0.4-1.6-0.8c0.1,0.5,0.2,0.9,0.1,1.1C168,86.1,168.6,86,169.4,86.1z M165.8,79.8c-0.2-0.2-0.3-0.3-0.4-0.4
	c0.8-0.3,4.1-2.5,7-3.4c-1.5-0.1-3.2-0.3-5-0.5c-0.6,0.9-2.3,1.9-4.7,2.4c0.6,0.4,1.2,0.8,1.7,1.3C164.9,79.5,165.3,79.6,165.8,79.8
	z M160.9,58.6L160.9,58.6c-0.1,0.1-0.1,0.1-0.1,0.2C160.9,58.7,160.9,58.6,160.9,58.6z M158.9,60.1L158.9,60.1
	C158.9,60.1,159,60,158.9,60.1C158.9,60,158.9,60.1,158.9,60.1z M153.6,45.9c-0.3,0-0.7,0-1,0c-0.8,0.4-1.5,0.8-2.3,1.2
	C151.5,46.7,152.6,46.3,153.6,45.9z M132.9,28.8c0.2,0.1,0.3,0.3,0.3,0.6C134,27.6,133.6,28,132.9,28.8z M127.2,27L127.2,27
	c0.1,0,0.1-0.1,0.1-0.2C127.2,26.9,127.2,26.9,127.2,27z M119.1,14.6c0.9,0.2,1.4,0.7,1.7,1.4c0.2-0.8,0.5-1.5,0.8-2.2
	C121.2,14.1,120.3,14.5,119.1,14.6z M115.1,22.1c-0.1,0-0.3,0.2-0.5,0.5l0,0c0.8,0.2,1.5,0.5,2.2,0.7
	C116.7,22.6,116.1,22.1,115.1,22.1z M114.8,18.3c0.1-0.1,0.2-0.1,0.2-0.2C115,18.2,114.9,18.2,114.8,18.3z M108,17.3
	c-0.2,1.1-0.5,2.3-0.8,3.4c1.6-0.4,2.7-0.4,3.4,0c0.3-2.3,0.9-4.9,1.9-7.3c-0.8,1.4-2,2.7-4.2,3.8C108.2,17.2,108.1,17.2,108,17.3z
	 M93.9,9c0.2,1.2,0.2,2.6,0.1,4C94.5,11.5,94.8,9.9,93.9,9z M74.7,15.7c0.1,0.3,0.1,0.6,0.2,0.9c0.6-0.1,1.2-0.1,1.8-0.2
	C76.2,16,75.4,15.7,74.7,15.7z M64.9,14.5c0.1,1.1,0.1,1.8,0.2,2.1c0.1-0.2,0.1-0.3,0.2-0.4C65.2,15.6,65,15,64.9,14.5z M56.3,16.6
	c0.5,1.1,1,2.4,1.6,3.8c0.9-0.9,3-0.3,4.1,1c0.1,0,0.1-0.1,0.2-0.1c-0.1-0.2-0.2-0.4-0.3-0.6c-1.2-0.9-2.9-2.1-4.6-3.4
	c0,0.3,0,0.8-0.1,1.3c0-0.1,0-0.8,0.1-1.3C57,17.1,56.6,16.8,56.3,16.6z M49.9,22.5c0.3,0.5,0.5,1,0.7,1.5c1.8-0.4,4.1-0.2,6,1.2
	l0.1-0.1c-1.2-1.2-2.3-2.1-3.1-2.5c0-0.2-0.1-0.7-0.1-1.4C52.3,22.3,51.1,22.7,49.9,22.5z M46.6,21.9c0-0.3,0-0.5,0-0.7
	c-0.4-0.2-0.7-0.5-1.1-0.8c0,0.1,0.2,0.3,0.3,0.7C46.2,21.4,46.4,21.7,46.6,21.9z M45.5,20.4c-0.2-0.2-0.4-0.3-0.7-0.5
	c0.3,0.4,0.6,0.7,0.9,1C45.6,20.6,45.5,20.4,45.5,20.4z M40.3,21.9c0.4,1.1,0.7,2.4,0.9,3.8c0.5-0.5,0.9-0.5,0.9,0.1
	c0.7-0.7,0.9,0.3,0.9,1.8c1.4-0.2,3.9,0.4,6.4,2.6c-0.6-1-1.2-2.1-2-3.2c-0.3-0.6,0-1.2,0.6-1.8c-1-0.3-2-0.7-3.1-1.1
	c0.7,0.6,1.4,1.2,1.8,1.7c-2.1,0.5-4.8-0.5-5.2-3.2C41.1,22.3,40.7,22.1,40.3,21.9z M32.9,47.7c0.1,0.2,0.1,0.5,0,0.7
	c0.1-0.1,0.1-0.1,0.2-0.2c0.1-0.1,0.1-0.1,0.2-0.2C33.1,47.9,33,47.8,32.9,47.7z M28.9,44.4c0.2,0.1,0.5,0.2,0.8,0.4
	c-0.2-0.2-0.4-0.3-0.6-0.5l0,0C29,44.4,29,44.4,28.9,44.4z M28.4,44.7c0.9,0.7,1.8,1.6,2.7,2.4c0-0.1,0-0.2,0-0.3
	c0.3,0,0.6,0,0.8,0.1c-1.1-0.8-2.2-1.6-3.1-2.4C28.7,44.6,28.6,44.6,28.4,44.7z M27.8,53.7c0.1-0.1,0.1-0.2,0.2-0.2
	c-2.3-1.6-4.3-3.5-6.3-5.2c0.2,0.4,0.6,0.8,1.2,1.2C24.8,52.2,26.9,52.2,27.8,53.7z M23.1,59.9c0.2-0.3,0.4-0.5,0.5-0.8
	c-1-0.6-2-1-3.1-1.5C21.4,58.3,22.2,59.1,23.1,59.9z M18.7,67.9L18.7,67.9L18.7,67.9L18.7,67.9z M10.8,74.4c0.6,0.1,1.1,0.2,1.5,0.2
	c0.2,0.4,0.3,0.8,0.5,1.1c0.9,0,2.1,0.1,3.3,0.3c0.1-0.5,0.3-1,0.4-1.5c-1.5-0.3-2.6-0.9-3-1.6c-0.2,0.1-0.7,0.1-1.4,0
	c4.1,1.8,5.8,2.9-0.3,1.7C11.5,74.5,11.2,74.4,10.8,74.4z M13.8,84.5c0.2,0.1,0.4,0.2,0.6,0.2c0-0.1,0-0.1,0-0.2
	C14.2,84.5,14,84.5,13.8,84.5z M17.3,110.2c0-0.1-0.1-0.3-0.1-0.4c-4.3-0.9-3.6-2.4-0.8-3.1c0-0.1-0.1-0.3-0.1-0.4
	c-0.1-0.4-0.2-0.8-0.3-1.3c-1.4,0.9-4.9,1.3-3.8,3.7C11.5,109.1,14.5,109.8,17.3,110.2z M25.8,137.3c0.3-0.4,0.6-0.9,0.9-1.3
	c-0.2,0.2-0.4,0.3-0.6,0.5C26,136.7,25.9,137,25.8,137.3z M36.1,150.2c0.2-0.3,0.4-0.4,0.5-0.3c0.2-0.8,0.4-1.5,0.7-2.2
	c-0.1-0.4-0.1-1.2-0.2-2.4c0.4,0,0.6,0.7,0.6,1.4c0.3-0.6,0.6-1.3,1-1.9c-1.1,0.2-2.1-0.5-2.7-1.8C35.9,144.6,36.2,147.5,36.1,150.2
	z M41.3,147.8c0.1-0.4,0.2-0.8,0.3-1.2c-0.8,0.1-1.5,0.4-2.1,0.7c0.3-0.1,0.6-0.1,0.9-0.1C40.7,147.1,41,147.3,41.3,147.8z
	 M47.4,150.1c0,0.2,0,0.3,0.1,0.5c0.1-0.6,0.4-1.1,0.8-1.7c-0.1,0.1-0.1,0.1,0,0c0.2-0.2,0.1-0.1,0,0c0.2-0.2,0.4-0.4,0.6-0.5
	c-0.1,0-0.2-0.1-0.3-0.1c-0.3,0.5-0.7,0.9-0.9,1.2C47.6,149.8,47.5,150,47.4,150.1z M55.3,151.6c-0.2-0.1-0.4-0.2-0.5-0.2
	c-0.1,0.1-0.2,0.1-0.3,0.1c-0.3-0.2-0.6-0.4-0.8-0.6c-0.1,0-0.1-0.1-0.2-0.1c-0.1,1.5,0,3,0.5,4.6C53.9,154.9,54.5,153.4,55.3,151.6
	z M67.4,161.3c-0.2-0.2-0.4-0.5-0.5-0.8c0.5,3.3-0.3-0.2-0.8-2.8c-0.2,0.7-0.4,1.2-0.6,1.6c-0.7-1.6-1.3-2.9-1.8-4.1
	c-0.5-0.2-1-0.5-1.5-0.7c1.4,2.5,2.7,3.6,4.9,7.6C67.1,162.2,67.4,161.3,67.4,161.3z M71.6,167.8l0.1,0.1
	C71.7,167.8,71.7,167.7,71.6,167.8C71.7,167.7,71.7,167.7,71.6,167.8z M96.1,167c0-0.5,0-0.9,0-1c-0.3,0-0.7,0-1-0.1
	C95.4,166.2,95.8,166.5,96.1,167z M124.9,161.4L124.9,161.4c-0.1-0.4-0.1-0.3,0-0.1c-0.2-1.5-0.1-2.7,0.1-3.6
	c-0.5,0.3-0.9,0.6-1.4,0.9C124.2,159.7,124.7,160.7,124.9,161.4z M135.6,149.5c0.3,0.3,0.5,0.7,0.7,1.1c0-0.7,0.1-1.3,0.2-1.8
	C136.2,149,135.9,149.2,135.6,149.5z M145.8,139.7c1,0.6,1.9,1.1,2.8,1.7c-0.6-0.9-1.2-1.9-1.8-2.9
	C146.5,138.9,146.2,139.3,145.8,139.7z M148.2,136.9c-0.1,0.2-0.3,0.3-0.4,0.5c2.4,1.7,5.2,3.4,7.9,4.4
	C153.4,140.6,150.7,138.8,148.2,136.9z"/>
</svg>
