<?xml version="1.0" encoding="utf-8"?>
<!-- Generator: Adobe Illustrator 19.2.1, SVG Export Plug-In . SVG Version: 6.00 Build 0)  -->
<svg version="1.1" id="Layer_1" xmlns="http://www.w3.org/2000/svg" xmlns:xlink="http://www.w3.org/1999/xlink" x="0px" y="0px"
	 viewBox="0 0 1050 1091.9" style="enable-background:new 0 0 1050 1091.9;" xml:space="preserve">
<style type="text/css">
	.st0{fill:#6B2254;}
	.st1{fill:#B4B5B5;}
	.st2{fill:#C9052F;}
	.st3{fill:#0650F7;}
</style>
<path class="st0" d="M488.1,776.1h21.2v21.1h-21.2V776.1L488.1,776.1z M403.2,797.1h21.2V776h-21.2V797.1L403.2,797.1z M318.3,797.1
	h21.2V776h-21.2V797.1L318.3,797.1z M233.4,797.1h21.2V776h-21.2V797.1L233.4,797.1z M148.6,797.1h21.2V776h-21.2V797.1L148.6,797.1
	z M63.7,797.1h21.2V776H63.7V797.1L63.7,797.1z M466.9,776.1h-21.2v21.1h-21.2v21.1h21.2v-21.1h21.2V776.1h21.2V755h-21.2V776.1
	L466.9,776.1z M382,776.1h-21.2v21.1h-21.2v21.1h21.2v-21.1H382V776.1h21.2V755H382V776.1L382,776.1z M297.1,776.1h-21.2v21.1h-21.2
	v21.1h21.2v-21.1h21.2V776.1h21.2V755h-21.2V776.1L297.1,776.1z M212.2,776.1H191v21.1h-21.2v21.1H191v-21.1h21.2V776.1h21.2V755
	h-21.2V776.1L212.2,776.1z M127.3,776.1h-21.2v21.1H84.9v21.1h21.2v-21.1h21.2V776.1h21.2V755h-21.2V776.1L127.3,776.1z M42.4,776.1
	H21.2v21.1H0v21.1h21.2v-21.1h21.2V776.1h21.2V755H42.4V776.1L42.4,776.1z M997.5,797.1h21.2V776h-21.2V797.1L997.5,797.1z
	 M912.6,797.1h21.2V776h-21.2V797.1L912.6,797.1z M827.7,797.1h21.2V776h-21.2V797.1L827.7,797.1z M742.8,797.1H764V776h-21.2V797.1
	L742.8,797.1z M657.9,797.1h21.2V776h-21.2V797.1L657.9,797.1z M573,797.1h21.2V776H573V797.1L573,797.1z M976.3,776.1H955v21.1
	h-21.2v21.1H955v-21.1h21.2L976.3,776.1h21.2V755h-21.2V776.1L976.3,776.1z M891.4,776.1h-21.2v21.1H849v21.1h21.2v-21.1h21.2V776.1
	h21.2V755h-21.2V776.1L891.4,776.1z M806.5,776.1h-21.2v21.1H764v21.1h21.2v-21.1h21.2L806.5,776.1h21.2V755h-21.2V776.1
	L806.5,776.1z M721.6,776.1h-21.2v21.1h-21.2v21.1h21.2v-21.1h21.2V776.1h21.2V755h-21.2V776.1L721.6,776.1z M636.7,776.1h-21.2
	v21.1h-21.2v21.1h21.2v-21.1h21.2V776.1h21.2V755h-21.2V776.1L636.7,776.1z M551.8,776.1h-21.2v21.1h-21.2v21.1h21.2v-21.1h21.2
	V776.1H573V755h-21.2V776.1L551.8,776.1z M424.5,230.7h21.2v20.9h21.2v20.9h21.2v-20.9h-21.2v-20.9h-21.2v-20.9h-21.2V230.7h-21.2
	v20.9h21.2V230.7L424.5,230.7z M360.8,251.6H382v20.9h21.2v-20.9H382v-20.9h-21.2v-20.9h-21.2v20.9h21.2V251.6L360.8,251.6z
	 M339.6,230.7h-21.2v20.9h21.2V230.7L339.6,230.7z M275.9,251.6h21.2v20.9h21.2v-20.9h-21.2v-20.9H276v-20.9h-21.2v20.9H276v20.9
	H275.9z M254.7,230.7h-21.2v20.9h21.2V230.7L254.7,230.7z M191,251.6h21.2v20.9h21.2v-20.9h-21.2v-20.9H191v-20.9h-21.2v20.9H191
	V251.6L191,251.6z M169.8,230.7h-21.2v20.9h21.2V230.7L169.8,230.7z M106.1,251.6h21.2v20.9h21.2v-20.9h-21.2v-20.9h-21.2v-20.9
	H84.9v20.9h21.2L106.1,251.6L106.1,251.6z M84.9,230.7H63.7v20.9h21.2V230.7L84.9,230.7z M21.2,251.6h21.2v20.9h21.2v-20.9H42.5
	v-20.9H21.3v-20.9H0.1v20.9h21.2v20.9H21.2z M848.9,230.7h21.2v20.9h21.2v20.9h21.2v-20.9h-21.2v-20.9h-21.2v-20.9h-21.2V230.7
	h-21.2v20.9h21.2V230.7L848.9,230.7z M785.3,251.6h21.2v20.9h21.2v-20.9h-21.2v-20.9h-21.2v-20.9h-21.2v20.9h21.2V251.6L785.3,251.6
	z M764,230.7h-21.2v20.9H764V230.7L764,230.7z M700.4,251.6h21.2v20.9h21.2v-20.9h-21.2v-20.9h-21.2v-20.9h-21.2v20.9h21.2V251.6
	L700.4,251.6z M679.1,230.7h-21.2v20.9h21.2V230.7L679.1,230.7z M615.5,251.6h21.2v20.9h21.2v-20.9h-21.2v-20.9h-21.2v-20.9h-21.2
	v20.9h21.2V251.6L615.5,251.6z M594.2,230.7H573v20.9h21.2V230.7L594.2,230.7z M530.6,251.6h21.2v20.9H573v-20.9h-21.2v-20.9h-21.2
	v-20.9h-21.2v20.9h21.2V251.6L530.6,251.6z M509.3,230.7h-21.2v20.9h21.2V230.7L509.3,230.7z M1040,797.1h-21.2v21.1h21.2V797.1
	h10.7V776H1040V797.1L1040,797.1z M1039.9,230.7v-20.9h-21.2v20.9H1039.9v20.9h10.7v-20.9H1039.9L1039.9,230.7z M1018.6,251.6v-20.9
	h-21.2v20.9H1018.6L1018.6,251.6z M955,251.6h21.2v20.9h21.2v-20.9h-21.2v-20.9H955v-20.9h-21.2v20.9H955V251.6L955,251.6z
	 M933.7,251.6v-20.9h-21.2v20.9H933.7L933.7,251.6z"/>
<path d="M700.4,965.2L700.4,965.2v21.1l0,0v21.2l0,0v21l0,0v42.3h-21.2v-42.1l0,0v-21.2l0,0v-21.2l0,0v-21.1l0,0V923l0,0v-21.1l0,0
	v-42.2h21.2v42.2l0,0V923l0,0V965.2L700.4,965.2L700.4,965.2z M615.5,944.1V923l0,0v-21.1l0,0v-42.2h-21.2v42.2l0,0V923l0,0v42.2
	l0,0v21.1l0,0v21.2l0,0v21.2l0,0v42.1h21.2v-42.3l0,0v-21l0,0v-21.2l0,0v-21.1l0,0V944.1L615.5,944.1L615.5,944.1z M530.6,944.1V923
	l0,0v-21.1l0,0v-42.2h-21.2v42.2l0,0V923l0,0v42.2l0,0v21.1l0,0v21.2l0,0v21.2l0,0v42.1h21.2v-42.3l0,0v-21l0,0v-21.2l0,0v-21.1l0,0
	V944.1L530.6,944.1L530.6,944.1z M445.7,944.1V923l0,0v-21.1l0,0v-42.2h-21.2v42.2l0,0V923l0,0v42.2l0,0v21.1l0,0v21.2l0,0v21.2l0,0
	v42.1h21.2v-42.3l0,0v-21l0,0v-21.2l0,0v-21.1l0,0V944.1L445.7,944.1L445.7,944.1z M360.8,944.1V923l0,0v-21.1l0,0v-42.2h-21.2v42.2
	l0,0V923l0,0v42.2l0,0v21.1l0,0v21.2l0,0v21.2l0,0v42.1h21.2v-42.3l0,0v-21l0,0v-21.2l0,0v-21.1l0,0V944.1L360.8,944.1L360.8,944.1z
	 M275.9,944.1V923l0,0v-21.1l0,0v-42.2h-21.2v42.2l0,0V923l0,0v42.2l0,0v21.1l0,0v21.2l0,0v21.2l0,0v42.1h21.2v-42.3l0,0v-21l0,0
	v-21.2l0,0v-21.1l0,0V944.1L275.9,944.1L275.9,944.1z M191,944.1V923l0,0v-21.1l0,0v-42.2h-21.2v42.2l0,0V923l0,0v42.2l0,0v21.1l0,0
	v21.2l0,0v21.2l0,0v42.1H191v-42.3l0,0v-21l0,0v-21.2l0,0v-21.1l0,0V944.1L191,944.1L191,944.1z M106.1,944.1V923l0,0v-21.1l0,0
	v-42.2H84.9v42.2l0,0V923l0,0v42.2l0,0v21.1l0,0v21.2l0,0v21.2l0,0v42.1h21.2v-42.3l0,0v-21l0,0v-21.2l0,0v-21.1l0,0L106.1,944.1
	L106.1,944.1L106.1,944.1z M21.2,944.1V923l0,0v-21.1l0,0v-42.2H0v42.2l0,0V923l0,0v42.2l0,0v21.1l0,0v21.2l0,0v21.2l0,0v42.1h21.2
	v-42.3l0,0v-21l0,0v-21.2l0,0v-21.1l0,0V944.1L21.2,944.1L21.2,944.1z M360.8,523.8v21h-21.2v-21h-42.5v21h21.2v21h21.2v21h21.2v-21
	H382v-21h21.2v-21H360.8L360.8,523.8L360.8,523.8z M191,523.8v21h-21.2v-21h-42.4v21h21.2v21h21.2v21H191v-21h21.2v-21h21.2v-21H191
	L191,523.8L191,523.8z M21.2,523.8v21H0v21l0,0v21h21.2v-21h21.2v-21h21.2v-21H21.2L21.2,523.8L21.2,523.8z M382,460.8h-21.2v-20.9
	h-21.2v20.9h-21.2v21h-21.2v21h42.5v-21h21.2v21h42.4v-21H382V460.8L382,460.8L382,460.8z M212.3,460.8H191v-20.9h-21.2v20.9h-21.2
	v21h-21.2v21h42.4v-21H191v21h42.4v-21h-21.2v-21H212.3L212.3,460.8z M42.5,460.8H21.2v-20.9H0v20.9l0,0v21h21.2v21h42.5v-21H42.5
	V460.8L42.5,460.8L42.5,460.8z M1018.7,523.8h-42.5v21h21.2v21h21.2v-21l0,0L1018.7,523.8L1018.7,523.8L1018.7,523.8z M870.2,523.8
	v21H849v-21h-42.5v21h21.2v21h21.2v21h21.2v-21h21.2v-21h21.2v-21H870.2L870.2,523.8L870.2,523.8z M700.4,523.8v21h-21.2v-21h-42.4
	v21H658v21h21.2v21h21.2v-21h21.2v-21h21.2v-21H700.4L700.4,523.8L700.4,523.8z M530.6,523.8v21h-21.2v-21h-42.5v21h21.2v21h21.2v21
	h21.2v-21h21.2v-21H573v-21H530.6L530.6,523.8L530.6,523.8z M997.5,481.8h-21.2v21h42.5v-21l0,0v-21h-21.2L997.5,481.8L997.5,481.8
	L997.5,481.8z M891.4,460.8h-21.2v-20.9H849v20.9h-21.2v21h-21.2v21h42.5v-21h21.2v21h42.4v-21h-21.2L891.4,460.8L891.4,460.8
	L891.4,460.8z M721.6,460.8h-21.2v-20.9h-21.2v20.9H658v21h-21.2v21h42.4v-21h21.2v21h42.4v-21h-21.2V460.8L721.6,460.8L721.6,460.8
	z M551.8,460.8h-21.2v-20.9h-21.2v20.9h-21.2v21H467v21h42.5v-21h21.2v21H573v-21h-21.2V460.8L551.8,460.8L551.8,460.8z M297.2,189
	v-20.9H276v-20.9h-21.2v-41.7l0,0V84.7h-21.2V63.6h-21.2V21.2h-21.2V0H170v21.2h-21.2v42.4h-21.3v21.2h-21.2v20.8l0,0v41.7h21.2
	v20.9h21.2V189h-21.2v41.7h21.2V189h21.2v-20.9h-21.2v-20.9h21.2v20.9h21.2V189h21.2v-20.9h-21.2v-20.9h-21.2v-41.7h21.2v41.7h21.2
	v20.9h21.2V189h-21.2v41.7h21.2V189h21.2v-20.9h-21.2v-20.9h21.2v20.9H276V189H297.2L297.2,189z M127.4,189v-20.9h-21.2v-20.9H85
	v-41.7l0,0V84.7l0,0V63.6H63.8v21.2l0,0v20.8H42.5V84.7H21.3V63.6H0.1v21.2l0,0v20.8h21.2v41.7h21.2v20.9h21.2V189H42.5v41.7h21.2
	V189h21.2v-20.9H63.8v-20.9H85v20.9h21.2V189H127.4L127.4,189z M21.3,189h21.2v-20.9H21.3v-20.9H0.1v20.9h21.2L21.3,189L21.3,189
	L21.3,189z M615.5,147.3h-21.2v-41.7h21.2V147.3h21.2v20.9h21.2V189h-21.2v41.7h21.2V189h21.2v-20.9h-21.2v-20.9h21.2v20.9h21.2V189
	h21.2v-20.9h-21.2v-20.9h-21.2v-41.7l0,0V84.7H658V63.6h-21.2V21.2h-21.2V0h-21.2v21.2h-21.2v42.4h-21.3v21.2h-21.2v20.8l0,0v41.7
	h21.2v20.9H573V189h-21.2v41.7H573V189h21.2v-20.9H573v-20.9h21.2v20.9h21.2V189h21.2v-20.9h-21.2L615.5,147.3L615.5,147.3
	L615.5,147.3z M445.7,147.3h-21.2v-41.7h21.2V147.3h21.2v20.9h21.2V189h-21.2v41.7h21.2V189h21.2v-20.9h-21.2v-20.9h21.2v20.9h21.2
	V189h21.2v-20.9h-21.2v-20.9h-21.2v-41.7l0,0V84.7l0,0V63.6h-21.2v21.2l0,0v20.8H467V84.7h-21.2V63.6h-21.1V21.2h-21.2V0h-21.2v21.2
	H361v42.4h-21.3v21.2h-21.2v20.8h-21.2V84.7l0,0V63.6H276v21.2l0,0v20.8l0,0v41.7h21.2v20.9h21.2V189h-21.2v41.7h21.2V189h21.2
	v-20.9h-21.2v-20.9h21.2v20.9h21.2V189H382v-20.9h-21.2v-20.9h-21.2v-41.7h21.2v41.7H382v20.9h21.2V189H382v41.7h21.2V189h21.2
	v-20.9h-21.2v-20.9h21.2v20.9h21.2V189h21.2v-20.9h-21.2L445.7,147.3L445.7,147.3L445.7,147.3z M1040,943.6v-21.1l0,0v-21.1l0,0
	v-41.8h-21.2v41.8l0,0v21.1l0,0v42.2l0,0v21.1l0,0v21.2l0,0v21.2l0,0v42.1h21.2v-42.1l0,0V1007l0,0v-21.2l0,0v-21.1l0,0V943.6
	L1040,943.6L1040,943.6z M955.1,943.6v-21.1l0,0v-21.1l0,0v-41.8h-21.2v41.8l0,0v21.1l0,0v42.2l0,0v21.1l0,0v21.2l0,0v21.2l0,0v42.1
	h21.2v-42.1l0,0V1007l0,0v-21.2l0,0v-21.1l0,0V943.6L955.1,943.6L955.1,943.6z M870.2,943.6v-21.1l0,0v-21.1l0,0v-41.8H849v41.8l0,0
	v21.1l0,0v42.2l0,0v21.1l0,0v21.2l0,0v21.2l0,0v42.1h21.2v-42.1l0,0V1007l0,0v-21.2l0,0v-21.1l0,0V943.6L870.2,943.6L870.2,943.6z
	 M785.3,943.6v-21.1l0,0v-21.1l0,0v-41.8h-21.2v41.8l0,0v21.1l0,0v42.2l0,0v21.1l0,0v21.2l0,0v21.2l0,0v42.1h21.2v-42.1l0,0V1007
	l0,0v-21.2l0,0v-21.1l0,0V943.6L785.3,943.6L785.3,943.6z M1040,544.7h-21.2v21l0,0v21h21.2v-21h10.7v-42H1040V544.7L1040,544.7
	L1040,544.7z M1040,439.9h-21.2v20.9l0,0v21h21.2v21h10.6v-41.9H1040V439.9L1040,439.9L1040,439.9z M955,147.3h-21.2v-41.7l0,0V84.7
	l0,0V63.6h-21.2v21.2l0,0v20.8h-21.2V84.7h-21.2V63.6H849V21.2h-21.2V0h-21.2v21.2h-21.2v42.4h-21.3v21.2h-21.2v20.8h-21.2V84.7l0,0
	V63.6h-21.2v21.2l0,0v20.8l0,0v41.7h21.2v20.9h21.2V189h-21.2v41.7h21.2V189H764v-20.9h-21.2v-20.9H764v20.9h21.2V189h21.2v-20.9
	h-21.2v-20.9H764v-41.7h21.2v41.7h21.2v20.9h21.2V189h-21.2v41.7h21.2V189h21.2v-20.9h-21.2v-20.9h21.2v20.9H870V189h21.2v-20.9H870
	v-20.9h-21v-41.7h21.2v41.7h21.2v20.9h21.2V189h-21.2v41.7h21.2V189h21.2v-20.9h-21.2v-20.9h21.2v20.9H955V189h21.2v-20.9H955V147.3
	L955,147.3L955,147.3z M1040,21.2V0h-21.2v21.2h-21.2v42.4h-21.3v21.2H955v20.8l0,0v41.7h21.2v20.9h21.2V189h-21.2v41.7h21.2V189
	h21.2v-20.9h-21.2v-20.9h21.2v20.9h21.2V189h10.7v-20.9h-10.7v-20.9h-21.2v-41.7h21.2v41.7h10.7v-126H1040L1040,21.2L1040,21.2z"/>
<path class="st1" d="M0,523.8L0,523.8v-21l0,0v-21h21.2v21h21.2v21H21.2v21H0V523.8L0,523.8z M339.6,523.8v21h21.2v-21H382v-21
	h-21.2v-21h-21.2v21h-21.2v21H339.6L339.6,523.8z M169.8,523.8v21H191v-21h21.2v-21H191v-21h-21.2v21h-21.2v21H169.8L169.8,523.8z
	 M21.2,439.9H0v-21l0,0v-21h21.2v21h21.2v20.9h21.2v20.9h21.2v21H106v-21h21.2v-20.9h21.2V419h21.2v-21H191v21h21.2v20.9h21.2v20.9
	h21.2v21h21.2v-21H297v-20.9h21.2V419h21.3v-21h21.2v21H382v20.9h21.2v20.9h21.2v21h21.2v-21h21.2v-20.9H488V419h21.3v-21h21.2v21
	h21.2v20.9H573v20.9h21.2v21h21.2v-21h21.2v-20.9h21.2V419H679v-21h21.2v21h21.2v20.9h21.2v20.9h21.2v21H785v-21h21.2v-20.9h21.2
	V419H849v-21h21.2v21h21.2v20.9h21.2v20.9h21.2v21H955v-21h21.2v-20.9h21.2V419h21.2v41.9h-21.2v21h-21.2v21H955v21h21.2v21h21.2v21
	h21.2v21l0,0v21h-21.2v-21h-21.2v-21H955v-21h-21.2v21h-21.2v21h-21.2v21h-21.2v21H849v-21h-21.2v-21h-21.2v-21h-21.2v-21H764v21
	h-21.2v21h-21.2v21h-21.2v21h-21.2v-21H658v-21h-21.2v-21h-21.2v-21h-21.2v21H573v21h-21.2v21h-21.2v21h-21.2v-21h-21.2v-21H467v-21
	h-21.2v-21h-21.2v21h-21.2v21H382v21h-21.2v21h-21.2v-21h-21.2v-21h-21.2v-21H276v-21h-21.2v21h-21.2v21h-21.2v21H191v21h-21.2v-21
	h-21.2v-21h-21.2v-21h-21.2v-21H84.9v21H63.7v21H42.5v21H21.2v21H0v-21l0,0v-21h21.2v-21h21.2v-21h21.2v-21h21.2v-21H63.7v-21H42.5
	v-21H21.2V439.9L21.2,439.9z M785.3,502.8v21h21.2v21h21.2v21h21.2v21h21.2v-21h21.2v-21h21.2v-21h21.2v-21h-21.2v-21h-21.2v-21
	h-21.2v-20.9H849v20.9h-21.2v21h-21.2v21H785.3L785.3,502.8z M615.5,502.8v21h21.2v21h21.2v21h21.2v21h21.2v-21h21.2v-21h21.2v-21
	H764v-21h-21.2v-21h-21.2v-21h-21.2v-20.9h-21.2v20.9H658v21h-21.2v21H615.5L615.5,502.8z M445.7,502.8v21h21.2v21h21.2v21h21.2v21
	h21.2v-21h21.2v-21H573v-21h21.2v-21H573v-21h-21.2v-21h-21.2v-20.9h-21.2v20.9h-21.2v21H467v21H445.7L445.7,502.8z M275.9,502.8v21
	h21.2v21h21.2v21h21.2v21h21.2v-21H382v-21h21.2v-21h21.2v-21h-21.2v-21H382v-21h-21.2v-20.9h-21.2v20.9h-21.2v21h-21.2v21H275.9
	L275.9,502.8z M106.1,502.8v21h21.2v21h21.2v21h21.2v21H191v-21h21.2v-21h21.2v-21h21.2v-21h-21.2v-21h-21.2v-21H191v-20.9h-21.2
	v20.9h-21.2v21h-21.2v21H106.1L106.1,502.8z M997.5,523.8h21.2v-21h-21.2V523.8L997.5,523.8z M848.9,523.8v21h21.2v-21h21.2v-21
	h-21.2v-21h-21.2v21h-21.2v21H848.9L848.9,523.8z M679.1,523.8v21h21.2v-21h21.2v-21h-21.2v-21h-21.2v21h-21.2v21H679.1L679.1,523.8
	z M509.4,523.8v21h21.2v-21h21.2v-21h-21.2v-21h-21.2v21h-21.2v21H509.4L509.4,523.8z M297.3,0h-21.2v21.2h21.2V0L297.3,0z M85,0
	H63.8v21.2H85V0L85,0z M721.7,0h-21.2v21.2h21.2V0L721.7,0z M509.5,0h-21.2v21.2h21.2V0L509.5,0z M1040,797.1h10.7v294.3H764.1
	v-21.2h21.2v-42.1l0,0v-21.2l0,0v-21.2l0,0v-21.1l0,0v-42.2l0,0v-21.1l0,0v-41.8h-21.2v-41.8h21.2v-20.6h21.2V776h21.2v-21h-21.2
	v21.1h-21.2v21.1H764v21.1l0,0v83.6l0,0V923l0,0v42.2l0,0v21.1l0,0v21.2l0,0v21l0,0v63.5H0v-21.2h21.2v-42.1l0,0v-21.2l0,0v-21.2
	l0,0v-21.1l0,0V923l0,0v-21.1l0,0V860H0v-41.8h21.2v-21.1h21.2V776h21.2v-21H42.4v21.1H21.2v21.1H0v-21.1l0,0V755h21.2v-21.1h21.2
	v-21h21.2v-21H42.4v21H21.2v21H0v-21l0,0v-21h21.2v-21h21.2v-21.1h21.2v-21h21.2v-21H106v21h21.2v21h21.2v21.1h21.2v21H191v-21h21.2
	v-21.1h21.2v-21h21.2v-21h21.2v21H297v21h21.2v21.1h21.2v21h21.2v-21H382v-21.1h21.2v-21h21.2v-21h21.2v21h21.2v21H488v21.1h21.2v21
	h21.2v-21h21.2v-21.1H573v-21h21.2v-21h21.2v21h21.2v21h21.2v21.1H679v21h21.2v-21h21.2v-21.1h21.2v-21H764v-21h21.2v21h21.2v21
	h21.2v21.1h21.2v21H870v-21h21.2v-21.1h21.2v-21h21.2v-21h21.2v21H976v21h21.2v21.1h21.2v21l0,0v21h-21.2v21h21.2V755l0,0v21.1
	h-21.2v21.1h21.2v20.6l0,0v0.4h21.2v-21.1H1040z M848.9,797.1v20.6h21.2v-20.6h21.2V776h21.2v-21h-21.2v21.1h-21.2v21.1L848.9,797.1
	L848.9,797.1z M912.6,733.9h21.2v-21h-21.2V733.9L912.6,733.9z M933.8,776.1h-21.2v21.1h21.2V776.1L933.8,776.1z M976.3,755
	L976.3,755v21.1H955v21.1h-21.2v20.6H955v-20.6h21.2v-21.1h21.2V755H976.3L976.3,755z M997.5,712.9v-21h-21.2v21H955v21h-21.2V755
	H955v-21.1h21.2v-21H997.5L997.5,712.9z M870.2,712.9v21H849V755h21.2v-21.1h21.2v-21h21.2v-21h-21.2v21H870.2L870.2,712.9z
	 M742.8,755h-21.2v21.1h-21.2v21.1h-21.2v21.1h21.2v-21.1h21.2v-21.1h21.2V755L742.8,755z M84.9,818.2h21.2v-21.1h21.2V776h21.2v-21
	h-21.2v21.1h-21.2v21.1H84.9V818.2L84.9,818.2z M84.9,755h21.2v-21.1h21.2v-21h21.2v-21h-21.2v21h-21.2v21H84.9V755L84.9,755z
	 M212.2,776.1H191v21.1h-21.2v21.1H191v-21.1h21.2V776.1h21.2V755h-21.2V776.1L212.2,776.1z M233.4,733.9h21.2v-21h-21.2V733.9
	L233.4,733.9z M382,776.1h-21.2v21.1h-21.2v21.1h21.2v-21.1H382V776.1h21.2V755H382V776.1L382,776.1z M403.2,733.9h21.2v-21h-21.2
	V733.9L403.2,733.9z M551.8,776.1h-21.2v21.1h-21.2v21.1h21.2v-21.1h21.2V776.1H573V755h-21.2V776.1L551.8,776.1z M573,733.9h21.2
	v-21H573V733.9L573,733.9z M679.1,776.1h-21.2v21.1h21.2V776.1L679.1,776.1z M233.4,797.1h21.2V776h-21.2V797.1L233.4,797.1z
	 M297.1,776.1h-21.2v21.1h-21.2v21.1h21.2v-21.1h21.2V776.1h21.2V755h-21.2V776.1L297.1,776.1z M403.2,797.1h21.2V776h-21.2V797.1
	L403.2,797.1z M466.9,776.1h-21.2v21.1h-21.2v21.1h21.2v-21.1h21.2V776.1h21.2V755h-21.2V776.1L466.9,776.1z M573,797.1h21.2V776
	H573V797.1L573,797.1z M636.7,776.1h-21.2v21.1h-21.2v21.1h21.2v-21.1h21.2V776.1h21.2V755h-21.2V776.1L636.7,776.1z M679.1,712.9
	h-21.2v21h21.2V712.9L679.1,712.9z M657.9,691.8h-21.2v21h-21.2v21h-21.2V755h21.2v-21.1h21.2v-21h21.2V691.8L657.9,691.8z
	 M509.4,776.1h-21.2v21.1h21.2V776.1L509.4,776.1z M509.4,712.9h-21.2v21h21.2V712.9L509.4,712.9z M488.1,691.8h-21.2v21h-21.2v21
	h-21.2V755h21.2v-21.1h21.2v-21h21.2V691.8L488.1,691.8z M339.6,776.1h-21.2v21.1h21.2V776.1L339.6,776.1z M339.6,712.9h-21.2v21
	h21.2V712.9L339.6,712.9z M318.3,691.8h-21.2v21h-21.2v21h-21.2V755h21.2v-21.1h21.2v-21h21.2V691.8L318.3,691.8z M169.8,776.1
	h-21.2v21.1h21.2V776.1L169.8,776.1z M169.8,712.9h-21.2v21h21.2V712.9L169.8,712.9z M764,712.9h-21.2v21H764V712.9L764,712.9z
	 M700.4,712.9v21h-21.2V755h21.2v-21.1h21.2v-21h21.2v-21h-21.2v21H700.4L700.4,712.9z M530.6,712.9v21h-21.2V755h21.2v-21.1h21.2
	v-21H573v-21h-21.2v21H530.6L530.6,712.9z M360.8,712.9v21h-21.2V755h21.2v-21.1H382v-21h21.2v-21H382v21H360.8L360.8,712.9z
	 M191,712.9v21h-21.2V755H191v-21.1h21.2v-21h21.2v-21h-21.2v21H191L191,712.9z M63.7,733.9h21.2v-21H63.7V733.9L63.7,733.9
	L63.7,733.9z M63.7,776.1v21.1h21.2v-21.1H63.7L63.7,776.1z M106.1,1070.7v-42.1l0,0v-21.2l0,0v-21.2l0,0v-21.1l0,0V923l0,0v-21.1
	l0,0V860H84.9v41.8l0,0V923l0,0v42.2l0,0v21.1l0,0v21.2l0,0v21l0,0v42.3h21.2V1070.7z M191,1070.7v-42.1l0,0v-21.2l0,0v-21.2l0,0
	v-21.1l0,0V923l0,0v-21.1l0,0V860h-21.2v41.8l0,0V923l0,0v42.2l0,0v21.1l0,0v21.2l0,0v21l0,0v42.3H191V1070.7z M275.9,1070.7v-42.1
	l0,0v-21.2l0,0v-21.2l0,0v-21.1l0,0V923l0,0v-21.1l0,0V860h-21.2v41.8l0,0V923l0,0v42.2l0,0v21.1l0,0v21.2l0,0v21l0,0v42.3h21.2
	V1070.7z M360.8,1070.7v-42.1l0,0v-21.2l0,0v-21.2l0,0v-21.1l0,0V923l0,0v-21.1l0,0V860h-21.2v41.8l0,0V923l0,0v42.2l0,0v21.1l0,0
	v21.2l0,0v21l0,0v42.3h21.2V1070.7z M445.7,1070.7v-42.1l0,0v-21.2l0,0v-21.2l0,0v-21.1l0,0V923l0,0v-21.1l0,0V860h-21.2v41.8l0,0
	V923l0,0v42.2l0,0v21.1l0,0v21.2l0,0v21l0,0v42.3h21.2V1070.7z M530.6,1070.7v-42.1l0,0v-21.2l0,0v-21.2l0,0v-21.1l0,0V923l0,0
	v-21.1l0,0V860h-21.2v41.8l0,0V923l0,0v42.2l0,0v21.1l0,0v21.2l0,0v21l0,0v42.3h21.2V1070.7z M615.5,1070.7v-42.1l0,0v-21.2l0,0
	v-21.2l0,0v-21.1l0,0V923l0,0v-21.1l0,0V860h-21.2v41.8l0,0V923l0,0v42.2l0,0v21.1l0,0v21.2l0,0v21l0,0v42.3h21.2V1070.7z
	 M700.4,1070.7v-42.1l0,0v-21.2l0,0v-21.2l0,0v-21.1l0,0V923l0,0v-21.1l0,0V860h-21.2v41.8l0,0V923l0,0v42.2l0,0v21.1l0,0v21.2l0,0
	v21l0,0v42.3h21.2V1070.7z M764,797.1V776h-21.2v21.1H764L764,797.1z M785.3,755v-21.1h21.2v-21h21.2v-21h-21.2v21h-21.2v21H764V755
	H785.3L785.3,755z M827.7,733.9h21.2v-21h-21.2V733.9L827.7,733.9L827.7,733.9z M827.7,776.1v21.1h21.2v-21.1H827.7L827.7,776.1z
	 M870.2,1070.3v-42.1l0,0V1007l0,0v-21.2l0,0v-21.1l0,0v-42.2l0,0v-21.1l0,0v-41.8H849v41.8l0,0v21.1l0,0v42.2l0,0v21.1l0,0v21.2
	l0,0v21.2l0,0v42.1H870.2L870.2,1070.3z M955.1,1070.3v-42.1l0,0V1007l0,0v-21.2l0,0v-21.1l0,0v-42.2l0,0v-21.1l0,0v-41.8h-21.2
	v41.8l0,0v21.1l0,0v42.2l0,0v21.1l0,0v21.2l0,0v21.2l0,0v42.1H955.1L955.1,1070.3z M1040,859.6h-21.2v41.8l0,0v21.1l0,0v42.2l0,0
	v21.1l0,0v21.2l0,0v21.2l0,0v42.1h21.2v-42.1l0,0V1007l0,0v-21.2l0,0v-21.1l0,0v-42.2l0,0v-21.1l0,0V859.6L1040,859.6z M1040,755
	h-21.2v21.1l0,0v21.1h21.2v-21.1h10.7V734H1040V755L1040,755z M1040,670.8v21h-21.2v21l0,0v21h21.2v-21h10.7v-42.1L1040,670.8
	L1040,670.8z M1040,565.7v21h-21.2v21l0,0v21h21.2v-21h10.6v-42H1040L1040,565.7z M1040,481.8h-21.2v21l0,0v21l0,0v21h21.2v-21h10.7
	v-21H1040V481.8L1040,481.8z M1040,398h-21.2v21l0,0v21h21.2v20.9h10.6V419H1040V398L1040,398z M1018.8,314.3L1018.8,314.3v20.9
	h21.2v20.9h10.6v-41.8H1040v-20.9h-21.2V314.3L1018.8,314.3z M1039.9,189h10.7v41.7h-10.7v-20.9h-21.2v20.9h21.2v20.9h10.7v41.8
	H1040v-20.9h-21.2v20.9h-21.2v20.9h-21.2v20.9h21.2v-20.9h21.2v20.9l0,0v20.9h-21.2V377h-21.2v21h-21.2v21H934v-21h-21.2v-20.9
	h-21.2v-20.9h-21.2v-20.9H849v20.9h-21.2v20.9h-21.2V398h-21.2v21h-21.2v-21H743v-20.9h-21.2v-20.9h-21.2v-20.9h-21.2v20.9H658v20.9
	h-21.2V398h-21.2v21h-21.2v-21h-21.2v-20.9H552v-20.9h-21.2v-20.9h-21.2v20.9h-21.2v20.9h-21.2V398H446v21h-21.2v-21h-21.2v-20.9
	h-21.2v-20.9h-21.2v-20.9H340v20.9h-21.2v20.9h-21.2V398h-21.2v21h-21.2v-21H234v-20.9h-21.2v-20.9H191v-20.9h-21.2v20.9h-21.2v20.9
	h-21.2V398h-21.2v21H84.9v-21H63.7v-20.9H42.5v-20.9H21.2v-20.9H0v-20.9l0,0v-20.9h21.2v20.9h21.2v-20.9H21.2v-20.9H0v-20.9l0,0
	v-20.9h21.2v20.9h21.2v20.9h21.2v-20.9H42.5v-20.9H21.3v-20.9H0.1V189l0,0v-20.9h21.2V189h21.2v-20.9H21.3v-20.9H0.1v-41.7h21.2
	v41.7h21.2v20.9h21.2V189H42.5v41.7h21.2v20.9h21.2v-20.9H63.7V189h21.2v-20.9H63.8v-20.9H85v20.9h21.2V189h21.2v-20.9h-21.2v-20.9
	H85v-41.7h21.2v41.7h21.2v20.9h21.2V189h-21.2v41.7h21.2v20.9h21.2v-20.9h-21.2V189h21.2v-20.9h-21.2v-20.9h21.2v20.9H191V189h21.2
	v-20.9H191v-20.9h-21.2v-41.7H191v41.7h21.2v20.9h21.2V189h-21.2v41.7h21.2v20.9h21.2v-20.9h-21.2V189h21.2v-20.9h-21.2v-20.9h21.2
	v20.9H276V189h21.2v-20.9H276v-20.9h-21.2v-41.7H276v41.7h21.2v20.9h21.2V189h-21.2v41.7h21.2v20.9h21.2v-20.9h-21.2V189h21.2v-20.9
	h-21.2v-20.9h21.2v20.9h21.2V189H382v-20.9h-21.2v-20.9h-21.2v-41.7h21.2v41.7H382v20.9h21.2V189H382v41.7h21.2v20.9h21.2v-20.9
	h-21.2V189h21.2v-20.9h-21.1v-20.9h21.2v-41.7h21.2v41.7h21.2v20.9h21.2V189h-21.2v41.7h21.2v20.9h21.2v-20.9h-21.2V189h21.2v-20.9
	h-21.2v-20.9h21.2v20.9h21.2V189h21.2v-20.9h-21.2v-20.9h-21.2v-41.7h21.2v41.7h21.2v20.9H573V189h-21.2v41.7H573v20.9h21.2v-20.9
	H573V189h21.2v-20.9H573v-20.9h21.2v20.9h21.2V189h21.2v-20.9h-21.2v-20.9h-21.2v-41.7h21.2v41.7h21.2v20.9h21.2V189h-21.2v41.7
	h21.2v20.9H679v-20.9h-21.2V189H679v-20.9h-21.2v-20.9H679v20.9h21.2V189h21.2v-20.9h-21.2v-20.9H679v-41.7h21.2v41.7h21.2v20.9
	h21.2V189h-21.2v41.7h21.2v20.9H764v-20.9h-21.2V189H764v-20.9h-21.2v-20.9H764v20.9h21.2V189h21.2v-20.9h-21.2v-20.9H764v-41.7
	h21.2v41.7h21.2v20.9h21.2V189h-21.2v41.7h21.2v20.9h21.2v-20.9h-21.2V189h21.2v-20.9h-21.1v-20.9h21.2v-41.7h21.2v41.7h21.2v20.9
	h21.2V189h-21.2v41.7h21.2v20.9h21.2v-20.9h-21.2V189h21.2v-20.9h-21.2v-20.9h21.2v20.9H955V189h21.2v-20.9H955v-20.9h-21.2v-41.7
	H955v41.7h21.2v20.9h21.2V189h-21.2v41.7h21.2v20.9h21.2v-20.9h-21.2V189h21.2v-20.9h-21.2v-20.9h21.2v20.9h21.2L1039.9,189
	L1039.9,189L1039.9,189z M933.8,230.7H955v20.9h21.2v20.9h21.2v-20.9h-21.2v-20.9H955v-20.9h-21.2V230.7L933.8,230.7z M870.1,230.7
	v-20.9h-21.2v20.9H870.1v20.9h21.2v20.9h21.2v-20.9h-21.2v-20.9L870.1,230.7L870.1,230.7z M849,147.3v20.9h21.1V189h21.2v-20.9
	h-21.2v-20.9L849,147.3L849,147.3z M764.1,230.7h21.2v20.9h21.2v20.9h21.2v-20.9h-21.2v-20.9h-21.2v-20.9h-21.2V230.7L764.1,230.7z
	 M806.5,293.4h-21.2v-20.9h-21.2v20.9h-21.2v20.9h-21.2v20.9h21.2v-20.9h21.2v-20.9h21.2v20.9h21.2V293.4L806.5,293.4z M679.2,230.7
	h21.2v20.9h21.2v20.9h21.2v-20.9h-21.2v-20.9h-21.2v-20.9h-21.2V230.7L679.2,230.7z M594.3,230.7h21.2v20.9h21.2v20.9h21.2v-20.9
	h-21.2v-20.9h-21.2v-20.9h-21.2V230.7L594.3,230.7z M636.7,293.4h-21.2v-20.9h-21.2v20.9h-21.2v20.9h-21.2v20.9h21.2v-20.9h21.2
	v-20.9h21.2v20.9h21.2V293.4L636.7,293.4z M509.4,230.7h21.2v20.9h21.2v20.9H573v-20.9h-21.2v-20.9h-21.2v-20.9h-21.2L509.4,230.7
	L509.4,230.7z M424.5,168.1h21.1V189h21.2v-20.9h-21.2v-20.9h-21.2v20.9H424.5z M424.5,230.7h21.1v20.9h21.2v20.9H488v-20.9h-21.2
	v-20.9h-21.2v-20.9h-21.2v20.9H424.5z M466.9,293.4h-21.2v-20.9h-21.2v20.9h-21.2v20.9h-21.2v20.9h21.2v-20.9h21.2v-20.9h21.2v20.9
	h21.2V293.4L466.9,293.4z M339.6,230.7h21.2v20.9H382v20.9h21.2v-20.9H382v-20.9h-21.2v-20.9h-21.2L339.6,230.7L339.6,230.7z
	 M254.7,230.7h21.2v20.9h21.2v20.9h21.2v-20.9h-21.2v-20.9H276v-20.9h-21.2v20.9H254.7z M254.7,272.5v20.9h-21.2v20.9h-21.2v20.9
	h21.2v-20.9h21.2v-20.9h21.2v20.9h21.2v-20.9h-21.2v-20.9H254.7L254.7,272.5z M169.8,230.7H191v20.9h21.2v20.9h21.2v-20.9h-21.2
	v-20.9H191v-20.9h-21.2V230.7L169.8,230.7z M84.9,230.7h21.2v20.9h21.2v20.9h21.2v-20.9h-21.2v-20.9h-21.2v-20.9H84.9V230.7
	L84.9,230.7z M42.5,314.3v20.9h21.2v-20.9h21.2v-20.9h21.2v20.9h21.2v-20.9h-21.2v-20.9H84.9v20.9H63.7v20.9H42.5L42.5,314.3z
	 M169.8,314.3v-20.9H191v20.9h21.2v-20.9H191v-20.9h-21.2v20.9h-21.2v20.9h-21.2v20.9h21.2v-20.9H169.8L169.8,314.3z M339.6,314.3
	v-20.9h21.2v20.9H382v-20.9h-21.2v-20.9h-21.2v20.9h-21.2v20.9h-21.2v20.9h21.2v-20.9H339.6L339.6,314.3z M509.4,314.3v-20.9h21.2
	v20.9h21.2v-20.9h-21.2v-20.9h-21.2v20.9h-21.2v20.9H467v20.9h21.2v-20.9H509.4L509.4,314.3z M679.2,314.3v-20.9h21.2v20.9h21.2
	v-20.9h-21.2v-20.9h-21.2v20.9H658v20.9h-21.2v20.9H658v-20.9H679.2L679.2,314.3z M849,314.3v-20.9h21.2v20.9h21.2v-20.9h-21.2
	v-20.9H849v20.9h-21.2v20.9h-21.2v20.9h21.2v-20.9H849L849,314.3z M976.3,293.4h-21.2v-20.9h-21.2v20.9h-21.2v20.9h-21.2v20.9h21.2
	v-20.9h21.2v-20.9h21.2v20.9h21.2V293.4L976.3,293.4z M1039.9,147.3v-41.7h-21.2v41.7H1039.9v20.9h10.7v-20.9H1039.9L1039.9,147.3z
	 M933.9,0h-21.2v21.2h21.2V0L933.9,0z"/>
<path class="st2" d="M488.1,712.9h21.2v21h-21.2V712.9L488.1,712.9z M403.2,733.9h21.2v-21h-21.2V733.9L403.2,733.9z M318.3,733.9
	h21.2v-21h-21.2V733.9L318.3,733.9z M233.4,733.9h21.2v-21h-21.2V733.9L233.4,733.9z M148.6,733.9h21.2v-21h-21.2V733.9L148.6,733.9
	z M63.7,733.9h21.2v-21H63.7V733.9L63.7,733.9z M466.9,712.9h-21.2v21h-21.2V755h21.2v-21.1h21.2V712.9h21.2v-21h-21.2V712.9
	L466.9,712.9z M382,712.9h-21.2v21h-21.2V755h21.2v-21.1H382V712.9h21.2v-21H382V712.9L382,712.9z M297.1,712.9h-21.2v21h-21.2V755
	h21.2v-21.1h21.2V712.9h21.2v-21h-21.2V712.9L297.1,712.9z M212.2,712.9H191v21h-21.2V755H191v-21.1h21.2V712.9h21.2v-21h-21.2
	V712.9L212.2,712.9z M127.3,712.9h-21.2v21H84.9V755h21.2v-21.1h21.2V712.9h21.2v-21h-21.2V712.9L127.3,712.9z M42.4,712.9H21.2v21
	H0V755h21.2v-21.1h21.2V712.9h21.2v-21H42.4V712.9L42.4,712.9z M488.2,314.3h21.2v-20.9h-21.2V314.3H467v20.9h21.2V314.3
	L488.2,314.3z M403.3,314.3h21.2v-20.9h-21.2V314.3h-21.2v20.9h21.2V314.3L403.3,314.3z M318.4,314.3h21.2v-20.9h-21.2V314.3h-21.2
	v20.9h21.2V314.3L318.4,314.3z M233.5,314.3h21.2v-20.9h-21.2V314.3h-21.2v20.9h21.2V314.3L233.5,314.3z M148.6,314.3h21.2v-20.9
	h-21.2V314.3h-21.2v20.9h21.2V314.3L148.6,314.3z M63.7,314.3h21.2v-20.9H63.7V314.3H42.5v20.9h21.2V314.3L63.7,314.3z M466.9,314.3
	v-20.9h-21.2v20.9H466.9L466.9,314.3z M382,314.3v-20.9h-21.2v20.9H382L382,314.3z M297.1,314.3v-20.9h-21.2v20.9H297.1L297.1,314.3
	z M212.3,314.3v-20.9H191v20.9H212.3L212.3,314.3z M127.4,314.3v-20.9h-21.2v20.9H127.4L127.4,314.3z M42.5,314.3v-20.9H21.2v20.9
	H42.5L42.5,314.3z M445.7,272.5h-21.2v20.9h21.2V272.5L445.7,272.5z M360.8,272.5h-21.2v20.9h21.2V272.5L360.8,272.5z M275.9,272.5
	h-21.2v20.9h21.2V272.5L275.9,272.5z M191,272.5h-21.2v20.9H191V272.5L191,272.5z M106.1,272.5H84.9v20.9h21.2L106.1,272.5
	L106.1,272.5z M21.2,272.5H0v20.9h21.2V272.5L21.2,272.5z M997.5,733.9h21.2v-21h-21.2V733.9L997.5,733.9z M912.6,733.9h21.2v-21
	h-21.2V733.9L912.6,733.9z M827.7,733.9h21.2v-21h-21.2V733.9L827.7,733.9z M742.8,733.9H764v-21h-21.2V733.9L742.8,733.9z
	 M657.9,733.9h21.2v-21h-21.2V733.9L657.9,733.9z M573,733.9h21.2v-21H573V733.9L573,733.9z M976.3,712.9H955v21h-21.2V755H955
	v-21.1h21.2L976.3,712.9h21.2v-21h-21.2V712.9L976.3,712.9z M891.4,712.9h-21.2v21H849V755h21.2v-21.1h21.2V712.9h21.2v-21h-21.2
	V712.9L891.4,712.9z M806.5,712.9h-21.2v21H764V755h21.2v-21.1h21.2L806.5,712.9h21.2v-21h-21.2V712.9L806.5,712.9z M721.6,712.9
	h-21.2v21h-21.2V755h21.2v-21.1h21.2V712.9h21.2v-21h-21.2V712.9L721.6,712.9z M636.7,712.9h-21.2v21h-21.2V755h21.2v-21.1h21.2
	V712.9h21.2v-21h-21.2V712.9L636.7,712.9z M551.8,712.9h-21.2v21h-21.2V755h21.2v-21.1h21.2V712.9H573v-21h-21.2V712.9L551.8,712.9z
	 M912.6,314.3h21.2v-20.9h-21.2V314.3h-21.2v20.9h21.2V314.3L912.6,314.3z M827.7,314.3H849v-20.9h-21.2L827.7,314.3h-21.2v20.9
	h21.2V314.3L827.7,314.3z M742.8,314.3H764v-20.9h-21.2V314.3h-21.2v20.9h21.2V314.3L742.8,314.3z M658,314.3h21.2v-20.9H658V314.3
	h-21.2v20.9H658V314.3L658,314.3z M573.1,314.3h21.2v-20.9h-21.2V314.3h-21.2v20.9h21.2V314.3L573.1,314.3z M997.5,314.3h-21.2v20.9
	h21.2V314.3h21.2v-20.9h-21.2V314.3L997.5,314.3z M976.3,314.3v-20.9h-21.2v20.9H976.3L976.3,314.3z M891.4,314.3v-20.9h-21.2v20.9
	H891.4L891.4,314.3z M806.5,314.3v-20.9h-21.2v20.9H806.5L806.5,314.3z M721.6,314.3v-20.9h-21.2v20.9H721.6L721.6,314.3z
	 M636.7,314.3v-20.9h-21.2v20.9H636.7L636.7,314.3z M551.8,314.3v-20.9h-21.2v20.9H551.8L551.8,314.3z M955.1,272.5h-21.2v20.9h21.2
	V272.5L955.1,272.5z M870.2,272.5H849v20.9h21.2V272.5L870.2,272.5z M785.3,272.5h-21.2v20.9h21.2V272.5L785.3,272.5z M700.4,272.5
	h-21.2v20.9h21.2V272.5L700.4,272.5z M615.5,272.5h-21.2v20.9h21.2V272.5L615.5,272.5z M530.6,272.5h-21.2v20.9h21.2V272.5
	L530.6,272.5z M1040,733.9h-21.2V755h21.2V733.9h10.7v-21H1040V733.9L1040,733.9z M1040,293.4v20.9h10.6v-20.9H1040L1040,293.4z
	 M1039.9,272.5h-21.1v20.9h21.2L1039.9,272.5L1039.9,272.5L1039.9,272.5z M1018.7,649.8L1018.7,649.8v21.1h-21.2v-21.1h-21.2v-21
	h-21.2v-21h-21.2v21h-21.2v21h-21.2v21.1h-21.2v21h-21.2v-21h-21.2v-21.1h-21.2v-21h-21.2v-21H764v21h-21.2v21h-21.2v21.1h-21.2v21
	h-21.2v-21H658v-21.1h-21.2v-21h-21.2v-21h-21.2v21H573v21h-21.2v21.1h-21.2v21h-21.2v-21h-21.2v-21.1H467v-21h-21.2v-21h-21.2v21
	h-21.2v21H382v21.1h-21.2v21h-21.2v-21h-21.2v-21.1h-21.2v-21H276v-21h-21.2v21h-21.2v21h-21.2v21.1H191v21h-21.2v-21h-21.2v-21.1
	h-21.2v-21h-21.2v-21H84.9v21H63.7v21H42.5v21.1H21.2v21H0v-21l0,0v-21.1l0,0v-21h21.2v-21h21.2v-21h21.2v-21h21.2v-21H106v21h21.2
	v21h21.2v21h21.2v21H191v-21h21.2v-21h21.2v-21h21.2v-21h21.2v21H297v21h21.2v21h21.2v21h21.2v-21H382v-21h21.2v-21h21.2v-21h21.2
	v21h21.2v21H488v21h21.2v21h21.2v-21h21.2v-21H573v-21h21.2v-21h21.2v21h21.2v21h21.2v21H679v21h21.2v-21h21.2v-21h21.2v-21H764v-21
	h21.2v21h21.2v21h21.2v21h21.2v21H870v-21h21.2v-21h21.2v-21h21.2v-21h21.2v21H976v21h21.2v21h21.2v21l0,0v21H1018.7z M1018.7,377.1
	L1018.7,377.1v-20.9h-21.2v20.9h-21.2V398h-21.2v21h-21.2v-21h-21.2v-20.9h-21.2v-20.9h-21.2v-20.9H849v20.9h-21.2v20.9h-21.2V398
	h-21.2v21h-21.2v-21H743v-20.9h-21.2v-20.9h-21.2v-20.9h-21.2v20.9H658v20.9h-21.2V398h-21.2v21h-21.2v-21h-21.2v-20.9H552v-20.9
	h-21.2v-20.9h-21.2v20.9h-21.2v20.9h-21.2V398H446v21h-21.2v-21h-21.2v-20.9h-21.2v-20.9h-21.2v-20.9H340v20.9h-21.2v20.9h-21.2V398
	h-21.2v21h-21.2v-21H234v-20.9h-21.2v-20.9H191v-20.9h-21.2v20.9h-21.2v20.9h-21.2V398h-21.2v21H84.9v-21H63.7v-20.9H42.5v-20.9
	H21.2v-20.9H0v20.9l0,0v20.9l0,0V398h21.2v21h21.2v21h21.2v20.9h21.2v21H106v-21h21.2V440h21.2v-21h21.2v-21H191v21h21.2v21h21.2
	v20.9h21.2v21h21.2v-21H297V440h21.2v-21h21.3v-21h21.2v21H382v21h21.2v20.9h21.2v21h21.2v-21h21.2V440H488v-21h21.3v-21h21.2v21
	h21.2v21H573v20.9h21.2v21h21.2v-21h21.2V440h21.2v-21H679v-21h21.2v21h21.2v21h21.2v20.9h21.2v21H785v-21h21.2V440h21.2v-21H849
	v-21h21.2v21h21.2v21h21.2v20.9h21.2v21H955v-21h21.2V440h21.2v-21h21.3v-21l0,0L1018.7,377.1L1018.7,377.1z M297.3,42.4h21.2V0
	h-21.2v21.2h-21.2V0h-21.2v42.4H297.3L297.3,42.4z M85,42.4h21.2V0H85v21.2H63.8V0H42.6v42.4H85L85,42.4z M721.7,42.4h21.2V0h-21.2
	v21.2h-21.2V0h-21.2v42.4H721.7L721.7,42.4z M509.5,42.4h21.2V0h-21.2v21.2h-21.2V0H467v42.4H509.5L509.5,42.4z M1040,607.7v21
	h-21.2v21l0,0v21.1l0,0v21h21.2v-21h10.6v-63.1H1040L1040,607.7z M1040,356.1L1040,356.1v-20.9h-21.2v20.9l0,0V377l0,0v21h21.2v21
	h10.6v-62.8H1040V356.1z M933.9,42.4h21.2V0h-21.2v21.2h-21.2V0h-21.2v42.4H933.9L933.9,42.4z"/>
<path class="st3" d="M466.9,502.8h21.2v21h-42.4v-21H466.9L466.9,502.8z M382,502.8v21h42.4v-21H382L382,502.8z M275.9,502.8v21
	h42.4v-21H275.9L275.9,502.8z M212.2,502.8v21h42.4v-21H212.2L212.2,502.8z M106.1,502.8v21h42.5v-21H106.1L106.1,502.8z
	 M42.4,502.8v21h42.4v-21H42.4L42.4,502.8z M955,502.8v21h42.4v-21H955L955,502.8z M891.4,502.8v21h42.4v-21H891.4L891.4,502.8z
	 M785.3,502.8v21h42.4v-21H785.3L785.3,502.8z M721.6,502.8v21H764v-21H721.6L721.6,502.8z M615.5,502.8v21H658v-21H615.5
	L615.5,502.8z M551.8,502.8v21h42.4v-21H551.8L551.8,502.8z M382.2,0h-63.7v42.4h-63.7V0h-63.7v21.2h21.2v42.4h21.2v21.2h21.2v20.8
	H276V84.7l0,0V63.6h21.2v21.2l0,0v20.8h21.2V84.7h21.2V63.6H361V21.2h21.2V0L382.2,0z M127.5,0h-21.2v42.4H42.6V0H0.2v63.6h21.2
	v21.2h21.2v20.8h21.2V84.7l0,0V63.6H85v21.2l0,0v20.8h21.2V84.7h21.2V63.6h21.3V21.2h21.2V0H127.5L127.5,0z M785.4,42.4V21.2h21.2V0
	h-63.7v42.4h-63.7V0h-63.7v21.2h21.2v42.4H658v21.2h21.2v20.8h21.2V84.7l0,0V63.6h21.2v21.2l0,0v20.8h21.2V84.7H764V63.6h21.3
	L785.4,42.4L785.4,42.4z M551.9,0h-21.2v42.4H467V0h-63.6v21.2h21.2v42.4h21.2v21.2H467v20.8h21.2V84.7l0,0V63.6h21.2v21.2l0,0v20.8
	h21.2V84.7h21.2V63.6h21.3V21.2h21.2V0H551.9L551.9,0z M1040,0v21.2h10.6V0H1040L1040,0z M976.3,0h-21.2v42.4h-63.7V0h-63.6v21.2
	H849v42.4h21.2v21.2h21.2v20.8h21.2V84.7l0,0V63.6h21.2v21.2l0,0v20.8H955V84.7h21.2V63.6h21.3V21.2h21.2V0H976.3L976.3,0z"/>
</svg>
