<?xml version="1.0" encoding="utf-8"?>
<!-- Generator: Adobe Illustrator 19.2.1, SVG Export Plug-In . SVG Version: 6.00 Build 0)  -->
<svg version="1.1" id="Layer_1" xmlns="http://www.w3.org/2000/svg" xmlns:xlink="http://www.w3.org/1999/xlink" x="0px" y="0px"
	 viewBox="0 0 347.8 367.8" style="enable-background:new 0 0 347.8 367.8;" xml:space="preserve">
<g>
	<path d="M172.1,0c35-0.2,68.3,11.3,96.4,32C287,45.7,304.6,61.2,318,80.2c6.4,9,9.8,19.1,10.2,30.4c0.6,13.6-0.3,25.8,1.1,39.6
		c2.1,20.3,8.1,37.7,8.2,58.6c0.1,17.9-2,18.8-1.8,36.7c3.7,1,8.2,3.2,10.2,6c3.5,7.4,1.4,23.6,0,31.7c-2.2,24.7-1.4,34.3-3.6,59
		c-1.8,9.5-1,24-10.8,25.3c-14.4-4.3-45.4-3.1-60.7-3.8c-44.2-2-88.3,0.5-132.5,1c-20.6,0.2-41.2-0.5-61.8,0.5
		c-5.1,0.2-63.4,0.8-62.7,2.3C3,342.1,8,312.7,2.6,279.7c-1.9-11.7-3.9-18-1.6-29.3c3.4-1.6,6.8-3.2,10.2-4.8
		c-0.1-10.7-3-23.7-1.2-32.1c3.7-17.1,3.7-35.8,7-53.3c5.4-28.6-1.1-57,14.9-84C61.6,26,118.3,0.3,172.1,0z"/>
	<path d="M80.6,367.2c0.4,0,0.8,0,1.2,0C81.4,367.2,81,367.2,80.6,367.2z"/>
	<path d="M76.4,367.8c0.4,0,0.8,0,1.2,0C77.2,367.8,76.8,367.8,76.4,367.8z"/>
</g>
</svg>
