<?xml version="1.0" encoding="utf-8"?>
<!-- Generator: Adobe Illustrator 19.2.1, SVG Export Plug-In . SVG Version: 6.00 Build 0)  -->
<svg version="1.1" id="Layer_1" xmlns="http://www.w3.org/2000/svg" xmlns:xlink="http://www.w3.org/1999/xlink" x="0px" y="0px"
	 viewBox="0 0 247.5 34.2" style="enable-background:new 0 0 247.5 34.2;" xml:space="preserve">
<style type="text/css">
	.st0{font-family:'AlergiaNormal-Light';}
	.st1{font-size:18px;}
	.st2{fill:none;stroke:#000000;stroke-width:0.9128;stroke-miterlimit:10;}
	.st3{fill:none;stroke:#000000;stroke-miterlimit:10;}
</style>
<text transform="matrix(1 0 0 1 96.4 22.1412)" class="st0 st1">Swipe</text>
<path class="st2" d="M150.3,33.2h-58c-8.8,0-16-7.2-16-16v0c0-8.8,7.2-16,16-16h58c8.8,0,16,7.2,16,16v0
	C166.3,26,159.1,33.2,150.3,33.2z"/>
<g>
	<line class="st3" x1="76.2" y1="17.2" x2="2.2" y2="17.2"/>
	<polyline class="st3" points="9.5,24.5 2.2,17.2 9.5,9.9 	"/>
</g>
<g>
	<line class="st3" x1="166.2" y1="17.2" x2="240.2" y2="17.2"/>
	<polyline class="st3" points="233.2,9.9 240.4,17.2 233.2,24.5 	"/>
</g>
</svg>
